Введите имя файла для записи: 2.out.txt
Очередь после первого задания
7
1
2
3
8
Введите A1: -1
Введите A2: -3
Очередь после второго задания
7
-1
1
-3
2
3
8
Очередь после третьего задания
7
-1
1
-3
2
8