Flow report for PecherskiiIV211_2
Wed Nov 24 11:19:12 2021
Quartus Prime Version 15.1.0 Build 185 10/21/2015 SJ Lite Edition


---------------------
; Table of Contents ;
---------------------
  1. Legal Notice
  2. Flow Summary
  3. Flow Settings
  4. Flow Non-Default Global Settings
  5. Flow Elapsed Time
  6. Flow OS Summary
  7. Flow Log
  8. Flow Messages
  9. Flow Suppressed Messages



----------------
; Legal Notice ;
----------------
Copyright (C) 1991-2015 Altera Corporation. All rights reserved.
Your use of Altera Corporation's design tools, logic functions 
and other software and tools, and its AMPP partner logic 
functions, and any output files from any of the foregoing 
(including device programming or simulation files), and any 
associated documentation or information are expressly subject 
to the terms and conditions of the Altera Program License 
Subscription Agreement, the Altera Quartus Prime License Agreement,
the Altera MegaCore Function License Agreement, or other 
applicable license agreement, including, without limitation, 
that your use is for the sole purpose of programming logic 
devices manufactured by Altera and sold by Altera or its 
authorized distributors.  Please refer to the applicable 
agreement for further details.



+----------------------------------------------------------------------------------+
; Flow Summary                                                                     ;
+------------------------------------+---------------------------------------------+
; Flow Status                        ; Successful - Wed Nov 24 11:19:12 2021       ;
; Quartus Prime Version              ; 15.1.0 Build 185 10/21/2015 SJ Lite Edition ;
; Revision Name                      ; PecherskiiIV211_2                           ;
; Top-level Entity Name              ; PecherskiiIV211_2_1                         ;
; Family                             ; MAX 10                                      ;
; Device                             ; 10M50DAF484C7G                              ;
; Timing Models                      ; Preliminary                                 ;
; Total logic elements               ; 2 / 49,760 ( < 1 % )                        ;
;     Total combinational functions  ; 2 / 49,760 ( < 1 % )                        ;
;     Dedicated logic registers      ; 0 / 49,760 ( 0 % )                          ;
; Total registers                    ; 0                                           ;
; Total pins                         ; 6 / 360 ( 2 % )                             ;
; Total virtual pins                 ; 0                                           ;
; Total memory bits                  ; 0 / 1,677,312 ( 0 % )                       ;
; Embedded Multiplier 9-bit elements ; 0 / 288 ( 0 % )                             ;
; Total PLLs                         ; 0 / 4 ( 0 % )                               ;
; UFM blocks                         ; 0 / 1 ( 0 % )                               ;
; ADC blocks                         ; 0 / 2 ( 0 % )                               ;
+------------------------------------+---------------------------------------------+


+-----------------------------------------+
; Flow Settings                           ;
+-------------------+---------------------+
; Option            ; Setting             ;
+-------------------+---------------------+
; Start date & time ; 11/24/2021 11:17:57 ;
; Main task         ; Compilation         ;
; Revision Name     ; PecherskiiIV211_2   ;
+-------------------+---------------------+


+---------------------------------------------------------------------------------------------------------------------------------+
; Flow Non-Default Global Settings                                                                                                ;
+-------------------------------------+--------------------------------+-------------------+---------------------+----------------+
; Assignment Name                     ; Value                          ; Default Value     ; Entity Name         ; Section Id     ;
+-------------------------------------+--------------------------------+-------------------+---------------------+----------------+
; COMPILER_SIGNATURE_ID               ; 62657544807854.163774187718736 ; --                ; --                  ; --             ;
; EDA_OUTPUT_DATA_FORMAT              ; Vhdl                           ; --                ; --                  ; eda_simulation ;
; EDA_SIMULATION_TOOL                 ; ModelSim-Altera (VHDL)         ; <None>            ; --                  ; --             ;
; MAX_CORE_JUNCTION_TEMP              ; 85                             ; --                ; --                  ; --             ;
; MIN_CORE_JUNCTION_TEMP              ; 0                              ; --                ; --                  ; --             ;
; PARTITION_COLOR                     ; 16764057                       ; --                ; PecherskiiIV211_2_1 ; Top            ;
; PARTITION_FITTER_PRESERVATION_LEVEL ; PLACEMENT_AND_ROUTING          ; --                ; PecherskiiIV211_2_1 ; Top            ;
; PARTITION_NETLIST_TYPE              ; SOURCE                         ; --                ; PecherskiiIV211_2_1 ; Top            ;
; PROJECT_OUTPUT_DIRECTORY            ; output_files                   ; --                ; --                  ; --             ;
; TOP_LEVEL_ENTITY                    ; PecherskiiIV211_2_1            ; PecherskiiIV211_2 ; --                  ; --             ;
+-------------------------------------+--------------------------------+-------------------+---------------------+----------------+


+-------------------------------------------------------------------------------------------------------------------------------+
; Flow Elapsed Time                                                                                                             ;
+---------------------------+--------------+-------------------------+---------------------+------------------------------------+
; Module Name               ; Elapsed Time ; Average Processors Used ; Peak Virtual Memory ; Total CPU Time (on all processors) ;
+---------------------------+--------------+-------------------------+---------------------+------------------------------------+
; Analysis & Synthesis      ; 00:00:10     ; 1.0                     ; 4903 MB             ; 00:00:26                           ;
; Fitter                    ; 00:00:08     ; 1.0                     ; 5384 MB             ; 00:00:07                           ;
; Assembler                 ; 00:00:03     ; 1.0                     ; 4854 MB             ; 00:00:03                           ;
; TimeQuest Timing Analyzer ; 00:00:02     ; 1.0                     ; 4953 MB             ; 00:00:02                           ;
; EDA Netlist Writer        ; 00:00:01     ; 1.0                     ; 4813 MB             ; 00:00:01                           ;
; EDA Netlist Writer        ; 00:00:01     ; 1.0                     ; 4802 MB             ; 00:00:00                           ;
; EDA Netlist Writer        ; 00:00:01     ; 1.0                     ; 4806 MB             ; 00:00:00                           ;
; Total                     ; 00:00:26     ; --                      ; --                  ; 00:00:39                           ;
+---------------------------+--------------+-------------------------+---------------------+------------------------------------+


+----------------------------------------------------------------------------------------+
; Flow OS Summary                                                                        ;
+---------------------------+------------------+-----------+------------+----------------+
; Module Name               ; Machine Hostname ; OS Name   ; OS Version ; Processor type ;
+---------------------------+------------------+-----------+------------+----------------+
; Analysis & Synthesis      ; CaMo3BaH4uK-ROG  ; Windows 8 ; 6.2        ; x86_64         ;
; Fitter                    ; CaMo3BaH4uK-ROG  ; Windows 8 ; 6.2        ; x86_64         ;
; Assembler                 ; CaMo3BaH4uK-ROG  ; Windows 8 ; 6.2        ; x86_64         ;
; TimeQuest Timing Analyzer ; CaMo3BaH4uK-ROG  ; Windows 8 ; 6.2        ; x86_64         ;
; EDA Netlist Writer        ; CaMo3BaH4uK-ROG  ; Windows 8 ; 6.2        ; x86_64         ;
; EDA Netlist Writer        ; CaMo3BaH4uK-ROG  ; Windows 8 ; 6.2        ; x86_64         ;
; EDA Netlist Writer        ; CaMo3BaH4uK-ROG  ; Windows 8 ; 6.2        ; x86_64         ;
+---------------------------+------------------+-----------+------------+----------------+


------------
; Flow Log ;
------------
quartus_map --read_settings_files=on --write_settings_files=off PecherskiiIV211_2 -c PecherskiiIV211_2
quartus_fit --read_settings_files=off --write_settings_files=off PecherskiiIV211_2 -c PecherskiiIV211_2
quartus_asm --read_settings_files=off --write_settings_files=off PecherskiiIV211_2 -c PecherskiiIV211_2
quartus_sta PecherskiiIV211_2 -c PecherskiiIV211_2
quartus_eda --read_settings_files=off --write_settings_files=off PecherskiiIV211_2 -c PecherskiiIV211_2
quartus_eda --gen_testbench --tool=modelsim_oem --format=verilog --write_settings_files=off PecherskiiIV211_2 -c PecherskiiIV211_2 --vector_source=C:/Users/CaMo3BaH4uK/Documents/workspace/hse/ComputerScience/PR2/PecherskiiIV211_2_1.vwf --testbench_file=C:/Users/CaMo3BaH4uK/Documents/workspace/hse/ComputerScience/PR2/simulation/qsim/PecherskiiIV211_2_1.vwf.vt
quartus_eda --write_settings_files=off --functional=on --flatten_buses=off --simulation=on --tool=modelsim_oem --format=verilog --output_directory=C:/Users/CaMo3BaH4uK/Documents/workspace/hse/ComputerScience/PR2/simulation/qsim/ PecherskiiIV211_2 -c PecherskiiIV211_2



