in:
3
3
1
2
3
4
5
66
7
8
9
out:
Введите N (0 < N <= 50): 3
Введите M (0 < M <= 50): 3
Введите элемент матрицы 0 0 (число должно быть целое): 1
Введите элемент матрицы 1 0 (число должно быть целое): 2
Введите элемент матрицы 2 0 (число должно быть целое): 3
Введите элемент матрицы 0 1 (число должно быть целое): 4
Введите элемент матрицы 1 1 (число должно быть целое): 5
Введите элемент матрицы 2 1 (число должно быть целое): 66
Введите элемент матрицы 0 2 (число должно быть целое): 7
Введите элемент матрицы 1 2 (число должно быть целое): 8
Введите элемент матрицы 2 2 (число должно быть целое): 9
Введённая матрица:
1       2       3
4       5       66
7       8       9
Введите K (0 < K <= 50): 3
Введите элемент массива 0 (число должно быть целое): 2
Введите элемент массива 1 (число должно быть целое): 5
Введите элемент массива 2 (число должно быть целое): 8
Введённый массив:
2       5       8
Матрица не сортировалась
========================
in:
3
3
9
8
7
6
5
4
3
2
1
out:
Введите N (0 < N <= 50): 3
Введите M (0 < M <= 50): 3
Введите элемент матрицы 0 0 (число должно быть целое): 9
Введите элемент матрицы 1 0 (число должно быть целое): 8
Введите элемент матрицы 2 0 (число должно быть целое): 7
Введите элемент матрицы 0 1 (число должно быть целое): 6
Введите элемент матрицы 1 1 (число должно быть целое): 5
Введите элемент матрицы 2 1 (число должно быть целое): 4
Введите элемент матрицы 0 2 (число должно быть целое): 3
Введите элемент матрицы 1 2 (число должно быть целое): 2
Введите элемент матрицы 2 2 (число должно быть целое): 1
Введённая матрица:
9       8       7
6       5       4
3       2       1
Введите K (0 < K <= 50): 1
Введите элемент массива 0 (число должно быть целое): 1
Введённый массив:
1
Полученная матрица:
7       8       9
4       5       6
3       2       1
=======================
in:
f
`
w
5.5
51
-3
out:
Введите N (0 < N <= 50): f
Попробуйте ещё раз
Введите N (0 < N <= 50): `
Попробуйте ещё раз
Введите N (0 < N <= 50): w
Попробуйте ещё раз
Введите N (0 < N <= 50): 5.5
Попробуйте ещё раз
Введите N (0 < N <= 50): 51
Попробуйте ещё раз
Введите N (0 < N <= 50): -3
Попробуйте ещё раз
Введите N (0 < N <= 50):
