/*
WARNING: Do NOT edit the input and output ports in this file in a text
editor if you plan to continue editing the block that represents it in
the Block Editor! File corruption is VERY likely to occur.
*/
/*
Copyright (C) 1991-2015 Altera Corporation. All rights reserved.
Your use of Altera Corporation's design tools, logic functions 
and other software and tools, and its AMPP partner logic 
functions, and any output files from any of the foregoing 
(including device programming or simulation files), and any 
associated documentation or information are expressly subject 
to the terms and conditions of the Altera Program License 
Subscription Agreement, the Altera Quartus Prime License Agreement,
the Altera MegaCore Function License Agreement, or other 
applicable license agreement, including, without limitation, 
that your use is for the sole purpose of programming logic 
devices manufactured by Altera and sold by Altera or its 
authorized distributors.  Please refer to the applicable 
agreement for further details.
*/
(header "graphic" (version "1.4"))
(pin
	(input)
	(rect 56 24 72 192)
	(text "INPUT" (rect 5 125 16 166)(font "Arial" (font_size 6))(vertical))
	(text "X1" (rect 2 5 16 22)(font "Arial" )(vertical))
	(pt 8 168)
	(drawing
		(line (pt 4 84)(pt 4 109))
		(line (pt 12 84)(pt 12 109))
		(line (pt 8 113)(pt 8 168))
		(line (pt 4 84)(pt 12 84))
		(line (pt 12 109)(pt 8 113))
		(line (pt 4 109)(pt 8 113))
	)
	(rotate270)
	(text "VCC" (rect -2 128 9 152)(font "Arial" (font_size 6))(vertical))
)
(pin
	(input)
	(rect 88 24 104 192)
	(text "INPUT" (rect 5 125 16 166)(font "Arial" (font_size 6))(vertical))
	(text "X2" (rect 2 5 16 22)(font "Arial" )(vertical))
	(pt 8 168)
	(drawing
		(line (pt 4 84)(pt 4 109))
		(line (pt 12 84)(pt 12 109))
		(line (pt 8 113)(pt 8 168))
		(line (pt 4 84)(pt 12 84))
		(line (pt 12 109)(pt 8 113))
		(line (pt 4 109)(pt 8 113))
	)
	(rotate270)
	(text "VCC" (rect -2 128 9 152)(font "Arial" (font_size 6))(vertical))
)
(pin
	(input)
	(rect 120 24 136 192)
	(text "INPUT" (rect 5 125 16 166)(font "Arial" (font_size 6))(vertical))
	(text "X3" (rect 2 5 16 22)(font "Arial" )(vertical))
	(pt 8 168)
	(drawing
		(line (pt 4 84)(pt 4 109))
		(line (pt 12 84)(pt 12 109))
		(line (pt 8 113)(pt 8 168))
		(line (pt 4 84)(pt 12 84))
		(line (pt 12 109)(pt 8 113))
		(line (pt 4 109)(pt 8 113))
	)
	(rotate270)
	(text "VCC" (rect -2 128 9 152)(font "Arial" (font_size 6))(vertical))
)
(pin
	(input)
	(rect 152 24 168 192)
	(text "INPUT" (rect 5 125 16 166)(font "Arial" (font_size 6))(vertical))
	(text "X4" (rect 2 5 16 22)(font "Arial" )(vertical))
	(pt 8 168)
	(drawing
		(line (pt 4 84)(pt 4 109))
		(line (pt 12 84)(pt 12 109))
		(line (pt 8 113)(pt 8 168))
		(line (pt 4 84)(pt 12 84))
		(line (pt 12 109)(pt 8 113))
		(line (pt 4 109)(pt 8 113))
	)
	(rotate270)
	(text "VCC" (rect -2 128 9 152)(font "Arial" (font_size 6))(vertical))
)
(pin
	(output)
	(rect 584 328 600 504)
	(text "OUTPUT" (rect 5 1 16 50)(font "Arial" (font_size 6))(vertical))
	(text "CDNF" (rect 2 90 16 123)(font "Arial" )(vertical))
	(pt 8 0)
	(drawing
		(line (pt 8 0)(pt 8 52))
		(line (pt 12 52)(pt 12 78))
		(line (pt 4 52)(pt 4 78))
		(line (pt 4 52)(pt 12 52))
		(line (pt 12 78)(pt 8 82))
		(line (pt 8 82)(pt 4 78))
		(line (pt 4 78)(pt 8 82))
	)
	(rotate270)
)
(pin
	(output)
	(rect 568 1024 584 1200)
	(text "OUTPUT" (rect 5 1 16 50)(font "Arial" (font_size 6))(vertical))
	(text "CKNF" (rect 2 90 16 123)(font "Arial" )(vertical))
	(pt 8 0)
	(drawing
		(line (pt 8 0)(pt 8 52))
		(line (pt 12 52)(pt 12 78))
		(line (pt 4 52)(pt 4 78))
		(line (pt 4 52)(pt 12 52))
		(line (pt 12 78)(pt 8 82))
		(line (pt 8 82)(pt 4 78))
		(line (pt 4 78)(pt 8 82))
	)
	(rotate270)
)
(symbol
	(rect 184 168 216 216)
	(text "NOT" (rect 21 1 32 25)(font "Arial" (font_size 6))(vertical))
	(text "inst" (rect -3 3 11 36)(font "Arial" )(vertical))
	(port
		(pt 16 0)
		(input)
		(text "IN" (rect 2 7 13 21)(font "Courier New" (bold))(invisible))
		(text "IN" (rect 11 2 25 13)(font "Courier New" (bold))(vertical)(invisible))
		(line (pt 16 0)(pt 16 13))
	)
	(port
		(pt 16 48)
		(output)
		(text "OUT" (rect 32 7 49 21)(font "Courier New" (bold))(invisible))
		(text "OUT" (rect 11 32 25 49)(font "Courier New" (bold))(vertical)(invisible))
		(line (pt 16 39)(pt 16 48))
	)
	(drawing
		(line (pt 7 13)(pt 25 13))
		(line (pt 25 13)(pt 16 31))
		(line (pt 7 13)(pt 16 31))
		(circle (rect 12 31 20 39))
	)
	(rotate270)
)
(symbol
	(rect 216 112 248 160)
	(text "NOT" (rect 21 1 32 25)(font "Arial" (font_size 6))(vertical))
	(text "inst1" (rect -3 3 11 44)(font "Arial" )(vertical))
	(port
		(pt 16 0)
		(input)
		(text "IN" (rect 2 7 13 21)(font "Courier New" (bold))(invisible))
		(text "IN" (rect 11 2 25 13)(font "Courier New" (bold))(vertical)(invisible))
		(line (pt 16 0)(pt 16 13))
	)
	(port
		(pt 16 48)
		(output)
		(text "OUT" (rect 32 7 49 21)(font "Courier New" (bold))(invisible))
		(text "OUT" (rect 11 32 25 49)(font "Courier New" (bold))(vertical)(invisible))
		(line (pt 16 39)(pt 16 48))
	)
	(drawing
		(line (pt 7 13)(pt 25 13))
		(line (pt 25 13)(pt 16 31))
		(line (pt 7 13)(pt 16 31))
		(circle (rect 12 31 20 39))
	)
	(rotate270)
)
(symbol
	(rect 248 56 280 104)
	(text "NOT" (rect 21 1 32 25)(font "Arial" (font_size 6))(vertical))
	(text "inst2" (rect -3 3 11 44)(font "Arial" )(vertical))
	(port
		(pt 16 0)
		(input)
		(text "IN" (rect 2 7 13 21)(font "Courier New" (bold))(invisible))
		(text "IN" (rect 11 2 25 13)(font "Courier New" (bold))(vertical)(invisible))
		(line (pt 16 0)(pt 16 13))
	)
	(port
		(pt 16 48)
		(output)
		(text "OUT" (rect 32 7 49 21)(font "Courier New" (bold))(invisible))
		(text "OUT" (rect 11 32 25 49)(font "Courier New" (bold))(vertical)(invisible))
		(line (pt 16 39)(pt 16 48))
	)
	(drawing
		(line (pt 7 13)(pt 25 13))
		(line (pt 25 13)(pt 16 31))
		(line (pt 7 13)(pt 16 31))
		(circle (rect 12 31 20 39))
	)
	(rotate270)
)
(symbol
	(rect 280 0 312 48)
	(text "NOT" (rect 21 1 32 25)(font "Arial" (font_size 6))(vertical))
	(text "inst3" (rect -3 3 11 44)(font "Arial" )(vertical))
	(port
		(pt 16 0)
		(input)
		(text "IN" (rect 2 7 13 21)(font "Courier New" (bold))(invisible))
		(text "IN" (rect 11 2 25 13)(font "Courier New" (bold))(vertical)(invisible))
		(line (pt 16 0)(pt 16 13))
	)
	(port
		(pt 16 48)
		(output)
		(text "OUT" (rect 32 7 49 21)(font "Courier New" (bold))(invisible))
		(text "OUT" (rect 11 32 25 49)(font "Courier New" (bold))(vertical)(invisible))
		(line (pt 16 39)(pt 16 48))
	)
	(drawing
		(line (pt 7 13)(pt 25 13))
		(line (pt 25 13)(pt 16 31))
		(line (pt 7 13)(pt 16 31))
		(circle (rect 12 31 20 39))
	)
	(rotate270)
)
(symbol
	(rect 304 208 368 288)
	(text "AND4" (rect 1 0 34 11)(font "Arial" (font_size 6)))
	(text "inst7" (rect 3 69 44 83)(font "Arial" ))
	(port
		(pt 0 16)
		(input)
		(text "IN1" (rect 2 7 19 21)(font "Courier New" (bold))(invisible))
		(text "IN1" (rect 2 7 19 21)(font "Courier New" (bold))(invisible))
		(line (pt 0 16)(pt 18 16))
	)
	(port
		(pt 0 32)
		(input)
		(text "IN2" (rect 2 23 19 37)(font "Courier New" (bold))(invisible))
		(text "IN2" (rect 2 23 19 37)(font "Courier New" (bold))(invisible))
		(line (pt 0 32)(pt 18 32))
	)
	(port
		(pt 0 48)
		(input)
		(text "IN3" (rect 2 39 19 53)(font "Courier New" (bold))(invisible))
		(text "IN3" (rect 2 39 19 53)(font "Courier New" (bold))(invisible))
		(line (pt 0 48)(pt 18 48))
	)
	(port
		(pt 0 64)
		(input)
		(text "IN4" (rect 2 55 19 69)(font "Courier New" (bold))(invisible))
		(text "IN4" (rect 2 55 19 69)(font "Courier New" (bold))(invisible))
		(line (pt 0 64)(pt 18 64))
	)
	(port
		(pt 64 40)
		(output)
		(text "OUT" (rect 48 31 65 45)(font "Courier New" (bold))(invisible))
		(text "OUT" (rect 48 31 65 45)(font "Courier New" (bold))(invisible))
		(line (pt 46 40)(pt 64 40))
	)
	(drawing
		(line (pt 18 28)(pt 34 28))
		(line (pt 18 52)(pt 18 28))
		(line (pt 18 67)(pt 18 13))
		(line (pt 34 53)(pt 18 53))
		(arc (pt 34 52)(pt 34 28)(rect 22 28 47 53))
	)
)
(symbol
	(rect 304 288 368 368)
	(text "AND4" (rect 1 0 34 11)(font "Arial" (font_size 6)))
	(text "inst8" (rect 3 69 44 83)(font "Arial" ))
	(port
		(pt 0 16)
		(input)
		(text "IN1" (rect 2 7 19 21)(font "Courier New" (bold))(invisible))
		(text "IN1" (rect 2 7 19 21)(font "Courier New" (bold))(invisible))
		(line (pt 0 16)(pt 18 16))
	)
	(port
		(pt 0 32)
		(input)
		(text "IN2" (rect 2 23 19 37)(font "Courier New" (bold))(invisible))
		(text "IN2" (rect 2 23 19 37)(font "Courier New" (bold))(invisible))
		(line (pt 0 32)(pt 18 32))
	)
	(port
		(pt 0 48)
		(input)
		(text "IN3" (rect 2 39 19 53)(font "Courier New" (bold))(invisible))
		(text "IN3" (rect 2 39 19 53)(font "Courier New" (bold))(invisible))
		(line (pt 0 48)(pt 18 48))
	)
	(port
		(pt 0 64)
		(input)
		(text "IN4" (rect 2 55 19 69)(font "Courier New" (bold))(invisible))
		(text "IN4" (rect 2 55 19 69)(font "Courier New" (bold))(invisible))
		(line (pt 0 64)(pt 18 64))
	)
	(port
		(pt 64 40)
		(output)
		(text "OUT" (rect 48 31 65 45)(font "Courier New" (bold))(invisible))
		(text "OUT" (rect 48 31 65 45)(font "Courier New" (bold))(invisible))
		(line (pt 46 40)(pt 64 40))
	)
	(drawing
		(line (pt 18 28)(pt 34 28))
		(line (pt 18 52)(pt 18 28))
		(line (pt 18 67)(pt 18 13))
		(line (pt 34 53)(pt 18 53))
		(arc (pt 34 52)(pt 34 28)(rect 22 28 47 53))
	)
)
(symbol
	(rect 304 368 368 448)
	(text "AND4" (rect 1 0 34 11)(font "Arial" (font_size 6)))
	(text "inst9" (rect 3 69 44 83)(font "Arial" ))
	(port
		(pt 0 16)
		(input)
		(text "IN1" (rect 2 7 19 21)(font "Courier New" (bold))(invisible))
		(text "IN1" (rect 2 7 19 21)(font "Courier New" (bold))(invisible))
		(line (pt 0 16)(pt 18 16))
	)
	(port
		(pt 0 32)
		(input)
		(text "IN2" (rect 2 23 19 37)(font "Courier New" (bold))(invisible))
		(text "IN2" (rect 2 23 19 37)(font "Courier New" (bold))(invisible))
		(line (pt 0 32)(pt 18 32))
	)
	(port
		(pt 0 48)
		(input)
		(text "IN3" (rect 2 39 19 53)(font "Courier New" (bold))(invisible))
		(text "IN3" (rect 2 39 19 53)(font "Courier New" (bold))(invisible))
		(line (pt 0 48)(pt 18 48))
	)
	(port
		(pt 0 64)
		(input)
		(text "IN4" (rect 2 55 19 69)(font "Courier New" (bold))(invisible))
		(text "IN4" (rect 2 55 19 69)(font "Courier New" (bold))(invisible))
		(line (pt 0 64)(pt 18 64))
	)
	(port
		(pt 64 40)
		(output)
		(text "OUT" (rect 48 31 65 45)(font "Courier New" (bold))(invisible))
		(text "OUT" (rect 48 31 65 45)(font "Courier New" (bold))(invisible))
		(line (pt 46 40)(pt 64 40))
	)
	(drawing
		(line (pt 18 28)(pt 34 28))
		(line (pt 18 52)(pt 18 28))
		(line (pt 18 67)(pt 18 13))
		(line (pt 34 53)(pt 18 53))
		(arc (pt 34 52)(pt 34 28)(rect 22 28 47 53))
	)
)
(symbol
	(rect 304 448 368 528)
	(text "AND4" (rect 1 0 34 11)(font "Arial" (font_size 6)))
	(text "inst10" (rect 3 69 52 83)(font "Arial" ))
	(port
		(pt 0 16)
		(input)
		(text "IN1" (rect 2 7 19 21)(font "Courier New" (bold))(invisible))
		(text "IN1" (rect 2 7 19 21)(font "Courier New" (bold))(invisible))
		(line (pt 0 16)(pt 18 16))
	)
	(port
		(pt 0 32)
		(input)
		(text "IN2" (rect 2 23 19 37)(font "Courier New" (bold))(invisible))
		(text "IN2" (rect 2 23 19 37)(font "Courier New" (bold))(invisible))
		(line (pt 0 32)(pt 18 32))
	)
	(port
		(pt 0 48)
		(input)
		(text "IN3" (rect 2 39 19 53)(font "Courier New" (bold))(invisible))
		(text "IN3" (rect 2 39 19 53)(font "Courier New" (bold))(invisible))
		(line (pt 0 48)(pt 18 48))
	)
	(port
		(pt 0 64)
		(input)
		(text "IN4" (rect 2 55 19 69)(font "Courier New" (bold))(invisible))
		(text "IN4" (rect 2 55 19 69)(font "Courier New" (bold))(invisible))
		(line (pt 0 64)(pt 18 64))
	)
	(port
		(pt 64 40)
		(output)
		(text "OUT" (rect 48 31 65 45)(font "Courier New" (bold))(invisible))
		(text "OUT" (rect 48 31 65 45)(font "Courier New" (bold))(invisible))
		(line (pt 46 40)(pt 64 40))
	)
	(drawing
		(line (pt 18 28)(pt 34 28))
		(line (pt 18 52)(pt 18 28))
		(line (pt 18 67)(pt 18 13))
		(line (pt 34 53)(pt 18 53))
		(arc (pt 34 52)(pt 34 28)(rect 22 28 47 53))
	)
)
(symbol
	(rect 304 528 368 608)
	(text "AND4" (rect 1 0 34 11)(font "Arial" (font_size 6)))
	(text "inst11" (rect 3 69 52 83)(font "Arial" ))
	(port
		(pt 0 16)
		(input)
		(text "IN1" (rect 2 7 19 21)(font "Courier New" (bold))(invisible))
		(text "IN1" (rect 2 7 19 21)(font "Courier New" (bold))(invisible))
		(line (pt 0 16)(pt 18 16))
	)
	(port
		(pt 0 32)
		(input)
		(text "IN2" (rect 2 23 19 37)(font "Courier New" (bold))(invisible))
		(text "IN2" (rect 2 23 19 37)(font "Courier New" (bold))(invisible))
		(line (pt 0 32)(pt 18 32))
	)
	(port
		(pt 0 48)
		(input)
		(text "IN3" (rect 2 39 19 53)(font "Courier New" (bold))(invisible))
		(text "IN3" (rect 2 39 19 53)(font "Courier New" (bold))(invisible))
		(line (pt 0 48)(pt 18 48))
	)
	(port
		(pt 0 64)
		(input)
		(text "IN4" (rect 2 55 19 69)(font "Courier New" (bold))(invisible))
		(text "IN4" (rect 2 55 19 69)(font "Courier New" (bold))(invisible))
		(line (pt 0 64)(pt 18 64))
	)
	(port
		(pt 64 40)
		(output)
		(text "OUT" (rect 48 31 65 45)(font "Courier New" (bold))(invisible))
		(text "OUT" (rect 48 31 65 45)(font "Courier New" (bold))(invisible))
		(line (pt 46 40)(pt 64 40))
	)
	(drawing
		(line (pt 18 28)(pt 34 28))
		(line (pt 18 52)(pt 18 28))
		(line (pt 18 67)(pt 18 13))
		(line (pt 34 53)(pt 18 53))
		(arc (pt 34 52)(pt 34 28)(rect 22 28 47 53))
	)
)
(symbol
	(rect 304 608 368 688)
	(text "AND4" (rect 1 0 34 11)(font "Arial" (font_size 6)))
	(text "inst12" (rect 3 69 52 83)(font "Arial" ))
	(port
		(pt 0 16)
		(input)
		(text "IN1" (rect 2 7 19 21)(font "Courier New" (bold))(invisible))
		(text "IN1" (rect 2 7 19 21)(font "Courier New" (bold))(invisible))
		(line (pt 0 16)(pt 18 16))
	)
	(port
		(pt 0 32)
		(input)
		(text "IN2" (rect 2 23 19 37)(font "Courier New" (bold))(invisible))
		(text "IN2" (rect 2 23 19 37)(font "Courier New" (bold))(invisible))
		(line (pt 0 32)(pt 18 32))
	)
	(port
		(pt 0 48)
		(input)
		(text "IN3" (rect 2 39 19 53)(font "Courier New" (bold))(invisible))
		(text "IN3" (rect 2 39 19 53)(font "Courier New" (bold))(invisible))
		(line (pt 0 48)(pt 18 48))
	)
	(port
		(pt 0 64)
		(input)
		(text "IN4" (rect 2 55 19 69)(font "Courier New" (bold))(invisible))
		(text "IN4" (rect 2 55 19 69)(font "Courier New" (bold))(invisible))
		(line (pt 0 64)(pt 18 64))
	)
	(port
		(pt 64 40)
		(output)
		(text "OUT" (rect 48 31 65 45)(font "Courier New" (bold))(invisible))
		(text "OUT" (rect 48 31 65 45)(font "Courier New" (bold))(invisible))
		(line (pt 46 40)(pt 64 40))
	)
	(drawing
		(line (pt 18 28)(pt 34 28))
		(line (pt 18 52)(pt 18 28))
		(line (pt 18 67)(pt 18 13))
		(line (pt 34 53)(pt 18 53))
		(arc (pt 34 52)(pt 34 28)(rect 22 28 47 53))
	)
)
(symbol
	(rect 304 688 368 768)
	(text "AND4" (rect 1 0 34 11)(font "Arial" (font_size 6)))
	(text "inst13" (rect 3 69 52 83)(font "Arial" ))
	(port
		(pt 0 16)
		(input)
		(text "IN1" (rect 2 7 19 21)(font "Courier New" (bold))(invisible))
		(text "IN1" (rect 2 7 19 21)(font "Courier New" (bold))(invisible))
		(line (pt 0 16)(pt 18 16))
	)
	(port
		(pt 0 32)
		(input)
		(text "IN2" (rect 2 23 19 37)(font "Courier New" (bold))(invisible))
		(text "IN2" (rect 2 23 19 37)(font "Courier New" (bold))(invisible))
		(line (pt 0 32)(pt 18 32))
	)
	(port
		(pt 0 48)
		(input)
		(text "IN3" (rect 2 39 19 53)(font "Courier New" (bold))(invisible))
		(text "IN3" (rect 2 39 19 53)(font "Courier New" (bold))(invisible))
		(line (pt 0 48)(pt 18 48))
	)
	(port
		(pt 0 64)
		(input)
		(text "IN4" (rect 2 55 19 69)(font "Courier New" (bold))(invisible))
		(text "IN4" (rect 2 55 19 69)(font "Courier New" (bold))(invisible))
		(line (pt 0 64)(pt 18 64))
	)
	(port
		(pt 64 40)
		(output)
		(text "OUT" (rect 48 31 65 45)(font "Courier New" (bold))(invisible))
		(text "OUT" (rect 48 31 65 45)(font "Courier New" (bold))(invisible))
		(line (pt 46 40)(pt 64 40))
	)
	(drawing
		(line (pt 18 28)(pt 34 28))
		(line (pt 18 52)(pt 18 28))
		(line (pt 18 67)(pt 18 13))
		(line (pt 34 53)(pt 18 53))
		(arc (pt 34 52)(pt 34 28)(rect 22 28 47 53))
	)
)
(symbol
	(rect 304 768 368 848)
	(text "AND4" (rect 1 0 34 11)(font "Arial" (font_size 6)))
	(text "inst14" (rect 3 69 52 83)(font "Arial" ))
	(port
		(pt 0 16)
		(input)
		(text "IN1" (rect 2 7 19 21)(font "Courier New" (bold))(invisible))
		(text "IN1" (rect 2 7 19 21)(font "Courier New" (bold))(invisible))
		(line (pt 0 16)(pt 18 16))
	)
	(port
		(pt 0 32)
		(input)
		(text "IN2" (rect 2 23 19 37)(font "Courier New" (bold))(invisible))
		(text "IN2" (rect 2 23 19 37)(font "Courier New" (bold))(invisible))
		(line (pt 0 32)(pt 18 32))
	)
	(port
		(pt 0 48)
		(input)
		(text "IN3" (rect 2 39 19 53)(font "Courier New" (bold))(invisible))
		(text "IN3" (rect 2 39 19 53)(font "Courier New" (bold))(invisible))
		(line (pt 0 48)(pt 18 48))
	)
	(port
		(pt 0 64)
		(input)
		(text "IN4" (rect 2 55 19 69)(font "Courier New" (bold))(invisible))
		(text "IN4" (rect 2 55 19 69)(font "Courier New" (bold))(invisible))
		(line (pt 0 64)(pt 18 64))
	)
	(port
		(pt 64 40)
		(output)
		(text "OUT" (rect 48 31 65 45)(font "Courier New" (bold))(invisible))
		(text "OUT" (rect 48 31 65 45)(font "Courier New" (bold))(invisible))
		(line (pt 46 40)(pt 64 40))
	)
	(drawing
		(line (pt 18 28)(pt 34 28))
		(line (pt 18 52)(pt 18 28))
		(line (pt 18 67)(pt 18 13))
		(line (pt 34 53)(pt 18 53))
		(arc (pt 34 52)(pt 34 28)(rect 22 28 47 53))
	)
)
(symbol
	(rect 304 848 368 928)
	(text "AND4" (rect 1 0 34 11)(font "Arial" (font_size 6)))
	(text "inst15" (rect 3 69 52 83)(font "Arial" ))
	(port
		(pt 0 16)
		(input)
		(text "IN1" (rect 2 7 19 21)(font "Courier New" (bold))(invisible))
		(text "IN1" (rect 2 7 19 21)(font "Courier New" (bold))(invisible))
		(line (pt 0 16)(pt 18 16))
	)
	(port
		(pt 0 32)
		(input)
		(text "IN2" (rect 2 23 19 37)(font "Courier New" (bold))(invisible))
		(text "IN2" (rect 2 23 19 37)(font "Courier New" (bold))(invisible))
		(line (pt 0 32)(pt 18 32))
	)
	(port
		(pt 0 48)
		(input)
		(text "IN3" (rect 2 39 19 53)(font "Courier New" (bold))(invisible))
		(text "IN3" (rect 2 39 19 53)(font "Courier New" (bold))(invisible))
		(line (pt 0 48)(pt 18 48))
	)
	(port
		(pt 0 64)
		(input)
		(text "IN4" (rect 2 55 19 69)(font "Courier New" (bold))(invisible))
		(text "IN4" (rect 2 55 19 69)(font "Courier New" (bold))(invisible))
		(line (pt 0 64)(pt 18 64))
	)
	(port
		(pt 64 40)
		(output)
		(text "OUT" (rect 48 31 65 45)(font "Courier New" (bold))(invisible))
		(text "OUT" (rect 48 31 65 45)(font "Courier New" (bold))(invisible))
		(line (pt 46 40)(pt 64 40))
	)
	(drawing
		(line (pt 18 28)(pt 34 28))
		(line (pt 18 52)(pt 18 28))
		(line (pt 18 67)(pt 18 13))
		(line (pt 34 53)(pt 18 53))
		(arc (pt 34 52)(pt 34 28)(rect 22 28 47 53))
	)
)
(symbol
	(rect 304 928 368 1008)
	(text "OR4" (rect 1 0 25 11)(font "Arial" (font_size 6)))
	(text "inst16" (rect 3 69 52 83)(font "Arial" ))
	(port
		(pt 0 16)
		(input)
		(text "IN1" (rect 2 7 19 21)(font "Courier New" (bold))(invisible))
		(text "IN1" (rect 2 7 19 21)(font "Courier New" (bold))(invisible))
		(line (pt 0 16)(pt 13 16))
	)
	(port
		(pt 0 48)
		(input)
		(text "IN3" (rect 2 39 19 53)(font "Courier New" (bold))(invisible))
		(text "IN3" (rect 2 39 19 53)(font "Courier New" (bold))(invisible))
		(line (pt 0 48)(pt 15 48))
	)
	(port
		(pt 0 64)
		(input)
		(text "IN4" (rect 2 55 19 69)(font "Courier New" (bold))(invisible))
		(text "IN4" (rect 2 55 19 69)(font "Courier New" (bold))(invisible))
		(line (pt 0 64)(pt 13 64))
	)
	(port
		(pt 0 32)
		(input)
		(text "IN2" (rect 2 23 19 37)(font "Courier New" (bold))(invisible))
		(text "IN2" (rect 2 23 19 37)(font "Courier New" (bold))(invisible))
		(line (pt 0 32)(pt 15 32))
	)
	(port
		(pt 64 40)
		(output)
		(text "OUT" (rect 48 31 65 45)(font "Courier New" (bold))(invisible))
		(text "OUT" (rect 48 31 65 45)(font "Courier New" (bold))(invisible))
		(line (pt 48 40)(pt 64 40))
	)
	(drawing
		(line (pt 13 67)(pt 13 51))
		(line (pt 25 52)(pt 13 52))
		(line (pt 13 12)(pt 13 29))
		(line (pt 13 29)(pt 25 29))
		(arc (pt 7 45)(pt 7 35)(rect -14 24 19 57))
		(arc (pt 49 40)(pt 25 29)(rect -6 29 57 92))
		(arc (pt 25 51)(pt 49 40)(rect -6 -11 57 52))
	)
)
(symbol
	(rect 304 1008 368 1088)
	(text "OR4" (rect 1 0 25 11)(font "Arial" (font_size 6)))
	(text "inst17" (rect 3 69 52 83)(font "Arial" ))
	(port
		(pt 0 16)
		(input)
		(text "IN1" (rect 2 7 19 21)(font "Courier New" (bold))(invisible))
		(text "IN1" (rect 2 7 19 21)(font "Courier New" (bold))(invisible))
		(line (pt 0 16)(pt 13 16))
	)
	(port
		(pt 0 48)
		(input)
		(text "IN3" (rect 2 39 19 53)(font "Courier New" (bold))(invisible))
		(text "IN3" (rect 2 39 19 53)(font "Courier New" (bold))(invisible))
		(line (pt 0 48)(pt 15 48))
	)
	(port
		(pt 0 64)
		(input)
		(text "IN4" (rect 2 55 19 69)(font "Courier New" (bold))(invisible))
		(text "IN4" (rect 2 55 19 69)(font "Courier New" (bold))(invisible))
		(line (pt 0 64)(pt 13 64))
	)
	(port
		(pt 0 32)
		(input)
		(text "IN2" (rect 2 23 19 37)(font "Courier New" (bold))(invisible))
		(text "IN2" (rect 2 23 19 37)(font "Courier New" (bold))(invisible))
		(line (pt 0 32)(pt 15 32))
	)
	(port
		(pt 64 40)
		(output)
		(text "OUT" (rect 48 31 65 45)(font "Courier New" (bold))(invisible))
		(text "OUT" (rect 48 31 65 45)(font "Courier New" (bold))(invisible))
		(line (pt 48 40)(pt 64 40))
	)
	(drawing
		(line (pt 13 67)(pt 13 51))
		(line (pt 25 52)(pt 13 52))
		(line (pt 13 12)(pt 13 29))
		(line (pt 13 29)(pt 25 29))
		(arc (pt 7 45)(pt 7 35)(rect -14 24 19 57))
		(arc (pt 49 40)(pt 25 29)(rect -6 29 57 92))
		(arc (pt 25 51)(pt 49 40)(rect -6 -11 57 52))
	)
)
(symbol
	(rect 304 1088 368 1168)
	(text "OR4" (rect 1 0 25 11)(font "Arial" (font_size 6)))
	(text "inst18" (rect 3 69 52 83)(font "Arial" ))
	(port
		(pt 0 16)
		(input)
		(text "IN1" (rect 2 7 19 21)(font "Courier New" (bold))(invisible))
		(text "IN1" (rect 2 7 19 21)(font "Courier New" (bold))(invisible))
		(line (pt 0 16)(pt 13 16))
	)
	(port
		(pt 0 48)
		(input)
		(text "IN3" (rect 2 39 19 53)(font "Courier New" (bold))(invisible))
		(text "IN3" (rect 2 39 19 53)(font "Courier New" (bold))(invisible))
		(line (pt 0 48)(pt 15 48))
	)
	(port
		(pt 0 64)
		(input)
		(text "IN4" (rect 2 55 19 69)(font "Courier New" (bold))(invisible))
		(text "IN4" (rect 2 55 19 69)(font "Courier New" (bold))(invisible))
		(line (pt 0 64)(pt 13 64))
	)
	(port
		(pt 0 32)
		(input)
		(text "IN2" (rect 2 23 19 37)(font "Courier New" (bold))(invisible))
		(text "IN2" (rect 2 23 19 37)(font "Courier New" (bold))(invisible))
		(line (pt 0 32)(pt 15 32))
	)
	(port
		(pt 64 40)
		(output)
		(text "OUT" (rect 48 31 65 45)(font "Courier New" (bold))(invisible))
		(text "OUT" (rect 48 31 65 45)(font "Courier New" (bold))(invisible))
		(line (pt 48 40)(pt 64 40))
	)
	(drawing
		(line (pt 13 67)(pt 13 51))
		(line (pt 25 52)(pt 13 52))
		(line (pt 13 12)(pt 13 29))
		(line (pt 13 29)(pt 25 29))
		(arc (pt 7 45)(pt 7 35)(rect -14 24 19 57))
		(arc (pt 49 40)(pt 25 29)(rect -6 29 57 92))
		(arc (pt 25 51)(pt 49 40)(rect -6 -11 57 52))
	)
)
(symbol
	(rect 304 1168 368 1248)
	(text "OR4" (rect 1 0 25 11)(font "Arial" (font_size 6)))
	(text "inst19" (rect 3 69 52 83)(font "Arial" ))
	(port
		(pt 0 16)
		(input)
		(text "IN1" (rect 2 7 19 21)(font "Courier New" (bold))(invisible))
		(text "IN1" (rect 2 7 19 21)(font "Courier New" (bold))(invisible))
		(line (pt 0 16)(pt 13 16))
	)
	(port
		(pt 0 48)
		(input)
		(text "IN3" (rect 2 39 19 53)(font "Courier New" (bold))(invisible))
		(text "IN3" (rect 2 39 19 53)(font "Courier New" (bold))(invisible))
		(line (pt 0 48)(pt 15 48))
	)
	(port
		(pt 0 64)
		(input)
		(text "IN4" (rect 2 55 19 69)(font "Courier New" (bold))(invisible))
		(text "IN4" (rect 2 55 19 69)(font "Courier New" (bold))(invisible))
		(line (pt 0 64)(pt 13 64))
	)
	(port
		(pt 0 32)
		(input)
		(text "IN2" (rect 2 23 19 37)(font "Courier New" (bold))(invisible))
		(text "IN2" (rect 2 23 19 37)(font "Courier New" (bold))(invisible))
		(line (pt 0 32)(pt 15 32))
	)
	(port
		(pt 64 40)
		(output)
		(text "OUT" (rect 48 31 65 45)(font "Courier New" (bold))(invisible))
		(text "OUT" (rect 48 31 65 45)(font "Courier New" (bold))(invisible))
		(line (pt 48 40)(pt 64 40))
	)
	(drawing
		(line (pt 13 67)(pt 13 51))
		(line (pt 25 52)(pt 13 52))
		(line (pt 13 12)(pt 13 29))
		(line (pt 13 29)(pt 25 29))
		(arc (pt 7 45)(pt 7 35)(rect -14 24 19 57))
		(arc (pt 49 40)(pt 25 29)(rect -6 29 57 92))
		(arc (pt 25 51)(pt 49 40)(rect -6 -11 57 52))
	)
)
(symbol
	(rect 304 1248 368 1328)
	(text "OR4" (rect 1 0 25 11)(font "Arial" (font_size 6)))
	(text "inst20" (rect 3 69 52 83)(font "Arial" ))
	(port
		(pt 0 16)
		(input)
		(text "IN1" (rect 2 7 19 21)(font "Courier New" (bold))(invisible))
		(text "IN1" (rect 2 7 19 21)(font "Courier New" (bold))(invisible))
		(line (pt 0 16)(pt 13 16))
	)
	(port
		(pt 0 48)
		(input)
		(text "IN3" (rect 2 39 19 53)(font "Courier New" (bold))(invisible))
		(text "IN3" (rect 2 39 19 53)(font "Courier New" (bold))(invisible))
		(line (pt 0 48)(pt 15 48))
	)
	(port
		(pt 0 64)
		(input)
		(text "IN4" (rect 2 55 19 69)(font "Courier New" (bold))(invisible))
		(text "IN4" (rect 2 55 19 69)(font "Courier New" (bold))(invisible))
		(line (pt 0 64)(pt 13 64))
	)
	(port
		(pt 0 32)
		(input)
		(text "IN2" (rect 2 23 19 37)(font "Courier New" (bold))(invisible))
		(text "IN2" (rect 2 23 19 37)(font "Courier New" (bold))(invisible))
		(line (pt 0 32)(pt 15 32))
	)
	(port
		(pt 64 40)
		(output)
		(text "OUT" (rect 48 31 65 45)(font "Courier New" (bold))(invisible))
		(text "OUT" (rect 48 31 65 45)(font "Courier New" (bold))(invisible))
		(line (pt 48 40)(pt 64 40))
	)
	(drawing
		(line (pt 13 67)(pt 13 51))
		(line (pt 25 52)(pt 13 52))
		(line (pt 13 12)(pt 13 29))
		(line (pt 13 29)(pt 25 29))
		(arc (pt 7 45)(pt 7 35)(rect -14 24 19 57))
		(arc (pt 49 40)(pt 25 29)(rect -6 29 57 92))
		(arc (pt 25 51)(pt 49 40)(rect -6 -11 57 52))
	)
)
(symbol
	(rect 304 1328 368 1408)
	(text "OR4" (rect 1 0 25 11)(font "Arial" (font_size 6)))
	(text "inst21" (rect 3 69 52 83)(font "Arial" ))
	(port
		(pt 0 16)
		(input)
		(text "IN1" (rect 2 7 19 21)(font "Courier New" (bold))(invisible))
		(text "IN1" (rect 2 7 19 21)(font "Courier New" (bold))(invisible))
		(line (pt 0 16)(pt 13 16))
	)
	(port
		(pt 0 48)
		(input)
		(text "IN3" (rect 2 39 19 53)(font "Courier New" (bold))(invisible))
		(text "IN3" (rect 2 39 19 53)(font "Courier New" (bold))(invisible))
		(line (pt 0 48)(pt 15 48))
	)
	(port
		(pt 0 64)
		(input)
		(text "IN4" (rect 2 55 19 69)(font "Courier New" (bold))(invisible))
		(text "IN4" (rect 2 55 19 69)(font "Courier New" (bold))(invisible))
		(line (pt 0 64)(pt 13 64))
	)
	(port
		(pt 0 32)
		(input)
		(text "IN2" (rect 2 23 19 37)(font "Courier New" (bold))(invisible))
		(text "IN2" (rect 2 23 19 37)(font "Courier New" (bold))(invisible))
		(line (pt 0 32)(pt 15 32))
	)
	(port
		(pt 64 40)
		(output)
		(text "OUT" (rect 48 31 65 45)(font "Courier New" (bold))(invisible))
		(text "OUT" (rect 48 31 65 45)(font "Courier New" (bold))(invisible))
		(line (pt 48 40)(pt 64 40))
	)
	(drawing
		(line (pt 13 67)(pt 13 51))
		(line (pt 25 52)(pt 13 52))
		(line (pt 13 12)(pt 13 29))
		(line (pt 13 29)(pt 25 29))
		(arc (pt 7 45)(pt 7 35)(rect -14 24 19 57))
		(arc (pt 49 40)(pt 25 29)(rect -6 29 57 92))
		(arc (pt 25 51)(pt 49 40)(rect -6 -11 57 52))
	)
)
(symbol
	(rect 304 1408 368 1488)
	(text "OR4" (rect 1 0 25 11)(font "Arial" (font_size 6)))
	(text "inst22" (rect 3 69 52 83)(font "Arial" ))
	(port
		(pt 0 16)
		(input)
		(text "IN1" (rect 2 7 19 21)(font "Courier New" (bold))(invisible))
		(text "IN1" (rect 2 7 19 21)(font "Courier New" (bold))(invisible))
		(line (pt 0 16)(pt 13 16))
	)
	(port
		(pt 0 48)
		(input)
		(text "IN3" (rect 2 39 19 53)(font "Courier New" (bold))(invisible))
		(text "IN3" (rect 2 39 19 53)(font "Courier New" (bold))(invisible))
		(line (pt 0 48)(pt 15 48))
	)
	(port
		(pt 0 64)
		(input)
		(text "IN4" (rect 2 55 19 69)(font "Courier New" (bold))(invisible))
		(text "IN4" (rect 2 55 19 69)(font "Courier New" (bold))(invisible))
		(line (pt 0 64)(pt 13 64))
	)
	(port
		(pt 0 32)
		(input)
		(text "IN2" (rect 2 23 19 37)(font "Courier New" (bold))(invisible))
		(text "IN2" (rect 2 23 19 37)(font "Courier New" (bold))(invisible))
		(line (pt 0 32)(pt 15 32))
	)
	(port
		(pt 64 40)
		(output)
		(text "OUT" (rect 48 31 65 45)(font "Courier New" (bold))(invisible))
		(text "OUT" (rect 48 31 65 45)(font "Courier New" (bold))(invisible))
		(line (pt 48 40)(pt 64 40))
	)
	(drawing
		(line (pt 13 67)(pt 13 51))
		(line (pt 25 52)(pt 13 52))
		(line (pt 13 12)(pt 13 29))
		(line (pt 13 29)(pt 25 29))
		(arc (pt 7 45)(pt 7 35)(rect -14 24 19 57))
		(arc (pt 49 40)(pt 25 29)(rect -6 29 57 92))
		(arc (pt 25 51)(pt 49 40)(rect -6 -11 57 52))
	)
)
(symbol
	(rect 416 952 480 1064)
	(text "AND6" (rect 1 0 34 11)(font "Arial" (font_size 6)))
	(text "inst23" (rect 3 101 52 115)(font "Arial" ))
	(port
		(pt 0 48)
		(input)
		(text "IN3" (rect 2 39 19 53)(font "Courier New" (bold))(invisible))
		(text "IN3" (rect 2 39 19 53)(font "Courier New" (bold))(invisible))
		(line (pt 0 48)(pt 18 48))
	)
	(port
		(pt 0 16)
		(input)
		(text "IN1" (rect 2 7 19 21)(font "Courier New" (bold))(invisible))
		(text "IN1" (rect 2 7 19 21)(font "Courier New" (bold))(invisible))
		(line (pt 0 16)(pt 18 16))
	)
	(port
		(pt 0 32)
		(input)
		(text "IN2" (rect 2 23 19 37)(font "Courier New" (bold))(invisible))
		(text "IN2" (rect 2 23 19 37)(font "Courier New" (bold))(invisible))
		(line (pt 0 32)(pt 18 32))
	)
	(port
		(pt 0 64)
		(input)
		(text "IN4" (rect 2 55 19 69)(font "Courier New" (bold))(invisible))
		(text "IN4" (rect 2 55 19 69)(font "Courier New" (bold))(invisible))
		(line (pt 0 64)(pt 18 64))
	)
	(port
		(pt 0 80)
		(input)
		(text "IN5" (rect 2 71 19 85)(font "Courier New" (bold))(invisible))
		(text "IN5" (rect 2 71 19 85)(font "Courier New" (bold))(invisible))
		(line (pt 0 80)(pt 18 80))
	)
	(port
		(pt 0 96)
		(input)
		(text "IN6" (rect 2 87 19 101)(font "Courier New" (bold))(invisible))
		(text "IN6" (rect 2 87 19 101)(font "Courier New" (bold))(invisible))
		(line (pt 0 96)(pt 18 96))
	)
	(port
		(pt 64 56)
		(output)
		(text "OUT" (rect 48 47 65 61)(font "Courier New" (bold))(invisible))
		(text "OUT" (rect 48 47 65 61)(font "Courier New" (bold))(invisible))
		(line (pt 46 56)(pt 64 56))
	)
	(drawing
		(line (pt 18 43)(pt 33 43))
		(line (pt 18 99)(pt 18 13))
		(line (pt 18 70)(pt 34 70))
		(arc (pt 34 69)(pt 33 43)(rect 20 43 47 70))
	)
)
(symbol
	(rect 496 992 560 1040)
	(text "AND2" (rect 1 0 34 11)(font "Arial" (font_size 6)))
	(text "inst24" (rect 3 37 52 51)(font "Arial" ))
	(port
		(pt 0 16)
		(input)
		(text "IN1" (rect 2 7 19 21)(font "Courier New" (bold))(invisible))
		(text "IN1" (rect 2 7 19 21)(font "Courier New" (bold))(invisible))
		(line (pt 0 16)(pt 14 16))
	)
	(port
		(pt 0 32)
		(input)
		(text "IN2" (rect 2 23 19 37)(font "Courier New" (bold))(invisible))
		(text "IN2" (rect 2 23 19 37)(font "Courier New" (bold))(invisible))
		(line (pt 0 32)(pt 14 32))
	)
	(port
		(pt 64 24)
		(output)
		(text "OUT" (rect 48 15 65 29)(font "Courier New" (bold))(invisible))
		(text "OUT" (rect 48 15 65 29)(font "Courier New" (bold))(invisible))
		(line (pt 42 24)(pt 64 24))
	)
	(drawing
		(line (pt 14 12)(pt 30 12))
		(line (pt 14 37)(pt 31 37))
		(line (pt 14 12)(pt 14 37))
		(arc (pt 31 37)(pt 30 12)(rect 18 12 43 37))
	)
)
(symbol
	(rect 432 232 496 376)
	(text "OR8" (rect 1 0 25 11)(font "Arial" (font_size 6)))
	(text "inst25" (rect 3 133 52 147)(font "Arial" ))
	(port
		(pt 0 16)
		(input)
		(text "IN1" (rect 2 7 19 21)(font "Courier New" (bold))(invisible))
		(text "IN1" (rect 2 7 19 21)(font "Courier New" (bold))(invisible))
		(line (pt 0 16)(pt 14 16))
	)
	(port
		(pt 0 48)
		(input)
		(text "IN3" (rect 2 39 19 53)(font "Courier New" (bold))(invisible))
		(text "IN3" (rect 2 39 19 53)(font "Courier New" (bold))(invisible))
		(line (pt 0 48)(pt 14 48))
	)
	(port
		(pt 0 32)
		(input)
		(text "IN2" (rect 2 23 19 37)(font "Courier New" (bold))(invisible))
		(text "IN2" (rect 2 23 19 37)(font "Courier New" (bold))(invisible))
		(line (pt 0 32)(pt 14 32))
	)
	(port
		(pt 0 64)
		(input)
		(text "IN4" (rect 2 55 19 69)(font "Courier New" (bold))(invisible))
		(text "IN4" (rect 2 55 19 69)(font "Courier New" (bold))(invisible))
		(line (pt 0 64)(pt 16 64))
	)
	(port
		(pt 0 96)
		(input)
		(text "IN6" (rect 2 87 19 101)(font "Courier New" (bold))(invisible))
		(text "IN6" (rect 2 87 19 101)(font "Courier New" (bold))(invisible))
		(line (pt 0 96)(pt 14 96))
	)
	(port
		(pt 0 80)
		(input)
		(text "IN5" (rect 2 71 19 85)(font "Courier New" (bold))(invisible))
		(text "IN5" (rect 2 71 19 85)(font "Courier New" (bold))(invisible))
		(line (pt 0 80)(pt 16 80))
	)
	(port
		(pt 0 112)
		(input)
		(text "IN7" (rect 2 103 19 117)(font "Courier New" (bold))(invisible))
		(text "IN7" (rect 2 103 19 117)(font "Courier New" (bold))(invisible))
		(line (pt 0 112)(pt 14 112))
	)
	(port
		(pt 0 128)
		(input)
		(text "IN8" (rect 2 119 19 133)(font "Courier New" (bold))(invisible))
		(text "IN8" (rect 2 119 19 133)(font "Courier New" (bold))(invisible))
		(line (pt 0 128)(pt 14 128))
	)
	(port
		(pt 64 72)
		(output)
		(text "OUT" (rect 48 63 65 77)(font "Courier New" (bold))(invisible))
		(text "OUT" (rect 48 63 65 77)(font "Courier New" (bold))(invisible))
		(line (pt 48 72)(pt 64 72))
	)
	(drawing
		(line (pt 14 131)(pt 14 83))
		(line (pt 14 84)(pt 25 84))
		(line (pt 14 61)(pt 25 61))
		(line (pt 14 61)(pt 14 13))
		(arc (pt 25 83)(pt 49 72)(rect -6 21 57 84))
		(arc (pt 49 72)(pt 25 61)(rect -6 61 57 124))
		(arc (pt 7 77)(pt 7 67)(rect -14 56 19 89))
	)
)
(symbol
	(rect 512 288 576 336)
	(text "OR2" (rect 1 0 25 11)(font "Arial" (font_size 6)))
	(text "inst26" (rect 3 37 52 51)(font "Arial" ))
	(port
		(pt 0 32)
		(input)
		(text "IN2" (rect 2 23 19 37)(font "Courier New" (bold))(invisible))
		(text "IN2" (rect 2 23 19 37)(font "Courier New" (bold))(invisible))
		(line (pt 0 32)(pt 15 32))
	)
	(port
		(pt 0 16)
		(input)
		(text "IN1" (rect 2 7 19 21)(font "Courier New" (bold))(invisible))
		(text "IN1" (rect 2 7 19 21)(font "Courier New" (bold))(invisible))
		(line (pt 0 16)(pt 15 16))
	)
	(port
		(pt 64 24)
		(output)
		(text "OUT" (rect 48 15 65 29)(font "Courier New" (bold))(invisible))
		(text "OUT" (rect 48 15 65 29)(font "Courier New" (bold))(invisible))
		(line (pt 48 24)(pt 64 24))
	)
	(drawing
		(line (pt 14 36)(pt 25 36))
		(line (pt 14 13)(pt 25 13))
		(arc (pt 7 29)(pt 7 19)(rect -14 8 19 41))
		(arc (pt 49 24)(pt 25 13)(rect -6 13 57 76))
		(arc (pt 25 35)(pt 49 24)(rect -6 -27 57 36))
	)
)
(connector
	(pt 64 200)
	(pt 80 200)
)
(connector
	(pt 80 200)
	(pt 80 16)
)
(connector
	(pt 80 16)
	(pt 200 16)
)
(connector
	(pt 200 168)
	(pt 200 16)
)
(connector
	(pt 96 200)
	(pt 112 200)
)
(connector
	(pt 112 200)
	(pt 112 8)
)
(connector
	(pt 232 8)
	(pt 112 8)
)
(connector
	(pt 232 8)
	(pt 232 112)
)
(connector
	(pt 128 200)
	(pt 144 200)
)
(connector
	(pt 144 200)
	(pt 144 0)
)
(connector
	(pt 144 0)
	(pt 264 0)
)
(connector
	(pt 264 56)
	(pt 264 0)
)
(connector
	(pt 160 200)
	(pt 176 200)
)
(connector
	(pt 176 200)
	(pt 176 -8)
)
(connector
	(pt 176 -8)
	(pt 296 -8)
)
(connector
	(pt 296 -8)
	(pt 296 0)
)
(connector
	(pt 96 192)
	(pt 96 200)
)
(connector
	(pt 128 192)
	(pt 128 200)
)
(connector
	(pt 160 192)
	(pt 160 200)
)
(connector
	(pt 304 224)
	(pt 200 224)
)
(connector
	(pt 200 224)
	(pt 200 216)
)
(connector
	(pt 304 240)
	(pt 232 240)
)
(connector
	(pt 232 240)
	(pt 232 160)
)
(connector
	(pt 304 256)
	(pt 264 256)
)
(connector
	(pt 304 272)
	(pt 160 272)
)
(connector
	(pt 160 200)
	(pt 160 272)
)
(connector
	(pt 304 304)
	(pt 200 304)
)
(connector
	(pt 200 304)
	(pt 200 224)
)
(connector
	(pt 304 320)
	(pt 232 320)
)
(connector
	(pt 232 320)
	(pt 232 240)
)
(connector
	(pt 304 336)
	(pt 128 336)
)
(connector
	(pt 128 200)
	(pt 128 336)
)
(connector
	(pt 304 352)
	(pt 296 352)
)
(connector
	(pt 296 352)
	(pt 296 48)
)
(connector
	(pt 304 384)
	(pt 200 384)
)
(connector
	(pt 200 384)
	(pt 200 304)
)
(connector
	(pt 304 400)
	(pt 232 400)
)
(connector
	(pt 304 416)
	(pt 128 416)
)
(connector
	(pt 128 336)
	(pt 128 416)
)
(connector
	(pt 304 432)
	(pt 160 432)
)
(connector
	(pt 304 464)
	(pt 200 464)
)
(connector
	(pt 304 480)
	(pt 96 480)
)
(connector
	(pt 304 496)
	(pt 128 496)
)
(connector
	(pt 304 512)
	(pt 296 512)
)
(connector
	(pt 64 192)
	(pt 64 200)
)
(connector
	(pt 128 416)
	(pt 128 496)
)
(connector
	(pt 160 272)
	(pt 160 432)
)
(connector
	(pt 232 320)
	(pt 232 400)
)
(connector
	(pt 264 104)
	(pt 264 256)
)
(connector
	(pt 296 352)
	(pt 296 512)
)
(connector
	(pt 304 544)
	(pt 64 544)
)
(connector
	(pt 64 200)
	(pt 64 544)
)
(connector
	(pt 304 560)
	(pt 232 560)
)
(connector
	(pt 232 400)
	(pt 232 560)
)
(connector
	(pt 304 576)
	(pt 264 576)
)
(connector
	(pt 304 592)
	(pt 296 592)
)
(connector
	(pt 296 512)
	(pt 296 592)
)
(connector
	(pt 304 624)
	(pt 64 624)
)
(connector
	(pt 64 544)
	(pt 64 624)
)
(connector
	(pt 304 640)
	(pt 232 640)
)
(connector
	(pt 232 560)
	(pt 232 640)
)
(connector
	(pt 304 656)
	(pt 128 656)
)
(connector
	(pt 128 496)
	(pt 128 656)
)
(connector
	(pt 304 672)
	(pt 296 672)
)
(connector
	(pt 304 704)
	(pt 64 704)
)
(connector
	(pt 304 720)
	(pt 232 720)
)
(connector
	(pt 304 736)
	(pt 128 736)
)
(connector
	(pt 304 752)
	(pt 160 752)
)
(connector
	(pt 96 200)
	(pt 96 480)
)
(connector
	(pt 64 624)
	(pt 64 704)
)
(connector
	(pt 128 656)
	(pt 128 736)
)
(connector
	(pt 160 432)
	(pt 160 752)
)
(connector
	(pt 264 256)
	(pt 264 576)
)
(connector
	(pt 304 784)
	(pt 64 784)
)
(connector
	(pt 64 704)
	(pt 64 784)
)
(connector
	(pt 304 800)
	(pt 96 800)
)
(connector
	(pt 96 480)
	(pt 96 800)
)
(connector
	(pt 304 816)
	(pt 264 816)
)
(connector
	(pt 304 832)
	(pt 160 832)
)
(connector
	(pt 160 752)
	(pt 160 832)
)
(connector
	(pt 304 864)
	(pt 64 864)
)
(connector
	(pt 304 880)
	(pt 96 880)
)
(connector
	(pt 304 896)
	(pt 128 896)
)
(connector
	(pt 304 912)
	(pt 160 912)
)
(connector
	(pt 368 328)
	(pt 376 328)
)
(connector
	(pt 368 408)
	(pt 384 408)
)
(connector
	(pt 368 488)
	(pt 392 488)
)
(connector
	(pt 368 568)
	(pt 400 568)
)
(connector
	(pt 368 648)
	(pt 408 648)
)
(connector
	(pt 368 728)
	(pt 416 728)
)
(connector
	(pt 368 808)
	(pt 424 808)
)
(connector
	(pt 368 888)
	(pt 432 888)
)
(connector
	(pt 64 784)
	(pt 64 864)
)
(connector
	(pt 96 800)
	(pt 96 880)
)
(connector
	(pt 128 736)
	(pt 128 896)
)
(connector
	(pt 160 832)
	(pt 160 912)
)
(connector
	(pt 200 384)
	(pt 200 464)
)
(connector
	(pt 232 640)
	(pt 232 720)
)
(connector
	(pt 264 576)
	(pt 264 816)
)
(connector
	(pt 296 592)
	(pt 296 672)
)
(connector
	(pt 304 944)
	(pt 64 944)
)
(connector
	(pt 64 864)
	(pt 64 944)
)
(connector
	(pt 304 976)
	(pt 128 976)
)
(connector
	(pt 128 896)
	(pt 128 976)
)
(connector
	(pt 96 960)
	(pt 304 960)
)
(connector
	(pt 96 880)
	(pt 96 960)
)
(connector
	(pt 304 992)
	(pt 160 992)
)
(connector
	(pt 160 912)
	(pt 160 992)
)
(connector
	(pt 304 1024)
	(pt 64 1024)
)
(connector
	(pt 64 944)
	(pt 64 1024)
)
(connector
	(pt 304 1040)
	(pt 232 1040)
)
(connector
	(pt 232 720)
	(pt 232 1040)
)
(connector
	(pt 304 1056)
	(pt 128 1056)
)
(connector
	(pt 128 976)
	(pt 128 1056)
)
(connector
	(pt 304 1072)
	(pt 160 1072)
)
(connector
	(pt 160 992)
	(pt 160 1072)
)
(connector
	(pt 304 1104)
	(pt 64 1104)
)
(connector
	(pt 64 1024)
	(pt 64 1104)
)
(connector
	(pt 304 1120)
	(pt 232 1120)
)
(connector
	(pt 232 1040)
	(pt 232 1120)
)
(connector
	(pt 304 1136)
	(pt 128 1136)
)
(connector
	(pt 128 1056)
	(pt 128 1136)
)
(connector
	(pt 304 1152)
	(pt 296 1152)
)
(connector
	(pt 296 672)
	(pt 296 1152)
)
(connector
	(pt 304 1184)
	(pt 64 1184)
)
(connector
	(pt 64 1104)
	(pt 64 1184)
)
(connector
	(pt 304 1200)
	(pt 232 1200)
)
(connector
	(pt 232 1120)
	(pt 232 1200)
)
(connector
	(pt 304 1216)
	(pt 264 1216)
)
(connector
	(pt 264 816)
	(pt 264 1216)
)
(connector
	(pt 304 1232)
	(pt 296 1232)
)
(connector
	(pt 296 1152)
	(pt 296 1232)
)
(connector
	(pt 304 1264)
	(pt 200 1264)
)
(connector
	(pt 200 464)
	(pt 200 1264)
)
(connector
	(pt 304 1280)
	(pt 96 1280)
)
(connector
	(pt 96 960)
	(pt 96 1280)
)
(connector
	(pt 304 1296)
	(pt 128 1296)
)
(connector
	(pt 128 1136)
	(pt 128 1296)
)
(connector
	(pt 304 1312)
	(pt 296 1312)
)
(connector
	(pt 296 1232)
	(pt 296 1312)
)
(connector
	(pt 304 1344)
	(pt 200 1344)
)
(connector
	(pt 200 1264)
	(pt 200 1344)
)
(connector
	(pt 304 1360)
	(pt 232 1360)
)
(connector
	(pt 232 1200)
	(pt 232 1360)
)
(connector
	(pt 304 1376)
	(pt 128 1376)
)
(connector
	(pt 128 1296)
	(pt 128 1376)
)
(connector
	(pt 304 1392)
	(pt 160 1392)
)
(connector
	(pt 160 1072)
	(pt 160 1392)
)
(connector
	(pt 304 1424)
	(pt 200 1424)
)
(connector
	(pt 200 1344)
	(pt 200 1424)
)
(connector
	(pt 304 1440)
	(pt 232 1440)
)
(connector
	(pt 232 1360)
	(pt 232 1440)
)
(connector
	(pt 304 1456)
	(pt 264 1456)
)
(connector
	(pt 264 1216)
	(pt 264 1456)
)
(connector
	(pt 304 1472)
	(pt 160 1472)
)
(connector
	(pt 160 1392)
	(pt 160 1472)
)
(connector
	(pt 368 1048)
	(pt 376 1048)
)
(connector
	(pt 368 1128)
	(pt 384 1128)
)
(connector
	(pt 368 1208)
	(pt 392 1208)
)
(connector
	(pt 368 1288)
	(pt 400 1288)
)
(connector
	(pt 368 1368)
	(pt 408 1368)
)
(connector
	(pt 496 1008)
	(pt 480 1008)
)
(connector
	(pt 368 968)
	(pt 416 968)
)
(connector
	(pt 376 1048)
	(pt 376 984)
)
(connector
	(pt 376 984)
	(pt 416 984)
)
(connector
	(pt 384 1128)
	(pt 384 1000)
)
(connector
	(pt 384 1000)
	(pt 416 1000)
)
(connector
	(pt 392 1208)
	(pt 392 1016)
)
(connector
	(pt 392 1016)
	(pt 416 1016)
)
(connector
	(pt 400 1288)
	(pt 400 1032)
)
(connector
	(pt 400 1032)
	(pt 416 1032)
)
(connector
	(pt 408 1368)
	(pt 408 1048)
)
(connector
	(pt 408 1048)
	(pt 416 1048)
)
(connector
	(pt 368 1448)
	(pt 488 1448)
)
(connector
	(pt 488 1448)
	(pt 488 1024)
)
(connector
	(pt 488 1024)
	(pt 496 1024)
)
(connector
	(pt 432 888)
	(pt 432 384)
)
(connector
	(pt 376 328)
	(pt 376 264)
)
(connector
	(pt 384 408)
	(pt 384 280)
)
(connector
	(pt 392 488)
	(pt 392 296)
)
(connector
	(pt 408 648)
	(pt 408 328)
)
(connector
	(pt 416 728)
	(pt 416 344)
)
(connector
	(pt 424 808)
	(pt 424 360)
)
(connector
	(pt 368 248)
	(pt 432 248)
)
(connector
	(pt 376 264)
	(pt 432 264)
)
(connector
	(pt 384 280)
	(pt 432 280)
)
(connector
	(pt 392 296)
	(pt 432 296)
)
(connector
	(pt 400 568)
	(pt 400 312)
)
(connector
	(pt 400 312)
	(pt 432 312)
)
(connector
	(pt 408 328)
	(pt 432 328)
)
(connector
	(pt 416 344)
	(pt 432 344)
)
(connector
	(pt 424 360)
	(pt 432 360)
)
(connector
	(pt 496 304)
	(pt 512 304)
)
(connector
	(pt 432 384)
	(pt 504 384)
)
(connector
	(pt 504 384)
	(pt 504 320)
)
(connector
	(pt 504 320)
	(pt 512 320)
)
(connector
	(pt 592 312)
	(pt 592 328)
)
(connector
	(pt 576 312)
	(pt 592 312)
)
(connector
	(pt 576 1016)
	(pt 560 1016)
)
(connector
	(pt 576 1016)
	(pt 576 1024)
)
(junction (pt 160 200))
(junction (pt 128 200))
(junction (pt 64 200))
(junction (pt 96 200))
(junction (pt 200 224))
(junction (pt 232 240))
(junction (pt 264 256))
(junction (pt 160 272))
(junction (pt 200 304))
(junction (pt 232 320))
(junction (pt 128 336))
(junction (pt 296 352))
(junction (pt 200 384))
(junction (pt 232 400))
(junction (pt 128 416))
(junction (pt 160 432))
(junction (pt 200 464))
(junction (pt 96 480))
(junction (pt 128 496))
(junction (pt 296 512))
(junction (pt 64 544))
(junction (pt 232 560))
(junction (pt 264 576))
(junction (pt 296 592))
(junction (pt 64 624))
(junction (pt 232 640))
(junction (pt 128 656))
(junction (pt 296 672))
(junction (pt 64 704))
(junction (pt 232 720))
(junction (pt 128 736))
(junction (pt 160 752))
(junction (pt 64 784))
(junction (pt 96 800))
(junction (pt 264 816))
(junction (pt 160 832))
(junction (pt 64 864))
(junction (pt 96 880))
(junction (pt 128 896))
(junction (pt 160 912))
(junction (pt 64 944))
(junction (pt 128 976))
(junction (pt 96 960))
(junction (pt 160 992))
(junction (pt 64 1024))
(junction (pt 232 1040))
(junction (pt 128 1056))
(junction (pt 160 1072))
(junction (pt 64 1104))
(junction (pt 232 1120))
(junction (pt 128 1136))
(junction (pt 296 1152))
(junction (pt 232 1200))
(junction (pt 264 1216))
(junction (pt 296 1232))
(junction (pt 200 1264))
(junction (pt 128 1296))
(junction (pt 200 1344))
(junction (pt 232 1360))
(junction (pt 160 1392))
